Zone 1;Not applicable/other
Zone 1;Agriculture & Agribusiness
Zone 1;Manufacturing
Zone 2;Auto, Trucks & Mobility
Zone 2;Food & Beverage
Zone 2;Electronics & Hardware
Zone 1;Transportation
Zone 2;Air Transportation
Zone 1;Sports
Zone 1;Video Game
Zone 1;ICT (Information and Communication technology)
Zone 2;Technology : Software & Platforms
Zone 3;Agriculture & Agribusiness
Zone 3;Energy
Zone 3;Transportation
Zone 4;Air Transportation
