Zone 1;Traditional revenue models;;
Zone 2;Builders;;
Zone 3;Craft;;
Zone 2;Commerce;;
Zone 3;Wholesale;;
Zone 1;Web and mobile revenue models;;
Zone 2;Advertising;;
Zone 2;E-Commerce;;
Zone 3;Marketplace;;
Zone 2;Gaming;;
Zone 2;Open Source;;
Zone 2;Not applicable/other;;
