1 Check;Start-up du Web
1000 MERCIS;Consulting
1001 Pharmacies;To be found
1001Pact;Financement et crowdfunding
1001Pharmacies;Pharmaceutical
1001pneus.fr;Commerce en ligne, e-business
123 Presta;To be found
15marches;Webmarketing , Pub
1M30;Consulting
Alsatis, ;Electronique et Télécoms
Alstef;To be found
ALSTOM;Transportation
Altares;To be found
Altempo;To be found
Alten;Consulting
ALTEN SUD OUEST;Consulting
Alter Way, ;Logiciels
Alterea;Start-up Energie et environnement
Alternative Food et Beverage;Agro
Alternative Urbaine;Start-up Economie et social
Alti;Consulting
Altics;Consulting
altima;To be found
Amabis;To be found
A-mano;Logiciels , Application
Amazon;To be found
Amazone web services;Consulting
Ambasdr;Applis mobiles
Ambiotis;Biotechnologies
Ambush;Apparel & Accessories
Amoes;Energie renouvelable
Amogado;Jeux vidéo, jeux en ligne
Amosdec;Computer Software
Amossys;Start-up Informatique
Amplitude;Computer Software
Amplitudes;To be found
Ana Khouri;Apparel & Accessories
Analog Watch Co;Mode, vêtements
Anaplan;To be found
Anaplan;To be found
Anaplan;Consulting
Anaplan;Logiciels
Anaplan*;To be found
Anatec;Financement et crowdfunding
anatole;Computer Software
Ancient Greek Sandals;Fashion
Andrea Crews;Fashion
Andree Putman;Beauty & Cosmetics
Angeo;Start-up du Web
Angeo Technology;Electronique et Télécoms
Angie;Consulting
ANGIE;Consulting
ANGIE;Consulting
ANGIE;Consulting
ANGIE;Communication
Anglepoise;Consumer Products
Animalbox;Commerce en ligne, e-business
Animalerieboutique, ;Commerce en ligne, e-business
Animalkeepers;Commerce en ligne, e-business , Start-up Economie et social
Anja Rubik;Beauty & Cosmetics
Ankama, ;Jeux vidéo, jeux en ligne
Annayake;Beauty & Cosmetics
Annelise Michelson;Apparel & Accessories
Anne-marie Herckes;Fashion
ANNICK GOUTAL;Beauty & Cosmetics
Annonces-legales-faciles.com;Commerce en ligne, e-business
Anona;Pub
Antabio;Biotechnologies
Antadis;Consulting
ANTARLOR;Electronique et Télécoms , ANTARLOR
Antelop;Logiciels
Antemeta;To be found
Antengrin;Ecoconception
Anthony Vaccarello;Fashion
AntiCafé;To be found
Kosho;Beauty & Cosmetics
Kosmos, ;Logiciels
Kova;Apparel & Accessories
kpler.com;Transportation
KPMG ADVISORY;Consulting
Krack;Start-up Informatique , Start-up Jeux et loisirs
Krama Krama;Mode, vêtements
Kramer;To be found
Krampouz;To be found
KREALID;Consulting
Kreditech;Financial Services
Krink;Consumer Products
Krono Safe;Logiciels
KTM Advance;To be found
Kuarix;Financial Services
Kudoz;To be found
kudoz;Employment
Kunio Kohzaki;Beauty & Cosmetics
KURE BAZAAR;Beauty & Cosmetics
KURT SALMON;Consulting
Kurt Salmon;Consulting
Kuzzle;Start-up du Web , Logiciels , Services informatiques, SSII et ESN
Kwaala;Commerce en ligne, e-business
Kwalito;Applis mobiles
Kwalys;To be found
Kwanko;To be found
Kwendoo;Financement et crowdfunding
Kwibee;To be found
Kwibee;Applis mobiles
Kwikstori;Photo et vidéo
Kwit;Applis mobiles
Kyotherm;Start-up Energie et environnement
Kyriba;Web Services
L;Apparel & Accessories
L/UNIFORM;Apparel & Accessories
L’Abeille Blanche;Start-up Energie et environnement
L’Appartelier;Restauration, recette, cuisine, vin
L’Arrosoir;Applis mobiles
L’Atelier Mobile;Commerce en ligne, e-business , Electronique et Télécoms
L’avant gardise;To be found
L’Établisienne;Art, culture, musique
L’OREAL;Beauty & Cosmetics
Paso Traiteur;To be found
Pasolo;To be found
Pass On;Start-up Jeux et loisirs
Passclub;Commerce en ligne, e-business
Passive Records;Start-up du Web
Passman,;Logiciels
Pastas Party;Restauration, recette, cuisine, vin
Patatam;Mode, vêtements
Patent pulse;To be found
Path;Réseaux sociaux et SMO , Applis mobiles
Pathé;To be found
Wytek,;Electronique et Télécoms
Wytek, ;Electronique et Télécoms
X;Apparel & Accessories
Xamen Technologies;Aéro
Xceed;Entertainment & Recreation
Xerox;Consulting
Xetal;Logiciels
Xiaomi, ;Electronique et Télécoms
Xilopix, ;Services informatiques, SSII et ESN
XOOPAR;Consumer Products
Xoopar;Start-up Informatique
Znappit;Applis mobiles
ZOEPPRITZ;Consumer Products
Zoomalia;Commerce en ligne, e-business
Zoomdle;Applis mobiles
Zoomici;To be found
Zuora;Logiciels
ZWILLING;Consumer Products
Zyfro;Logiciels
Zyfro ;Accounting
